Tue Dec 11 15:26:14 CET 2018
Preloading tcmalloc_minimal.so
Py:Athena            INFO including file "AthenaCommon/Preparation.py"
Py:Athena            INFO using release [WorkDir-22.0.1] [x86_64-slc6-gcc62-opt] [atlas-work3g/fc1ea6b7761] -- built on [2018-12-11T1514]
Py:Athena            INFO including file "AthenaCommon/Atlas.UnixStandardJob.py"
Py:Athena            INFO executing ROOT6Setup
Py:Athena            INFO configuring AthenaHive with [1] concurrent threads and [1] concurrent events
Py:AlgScheduler      INFO setting up AvalancheSchedulerSvc/AvalancheSchedulerSvc with 1 threads
Py:Athena            INFO including file "AthenaCommon/Execution.py"
Py:Athena            INFO including file "DataModelRunTests/CondReaderMT_jo.py"
Py:Athena            INFO including file "DataModelRunTests/CondReader_jo.py"
Py:Athena            INFO including file "AthenaPoolCnvSvc/AthenaPool_jobOptions.py"
Py:ConfigurableDb    INFO Read module info for 5443 configurables from 42 genConfDb files
Py:ConfigurableDb    INFO No duplicates have been found: that's good !
Py:Athena            INFO including file "DataModelRunTests/loadReadDicts.py"
EventInfoMgtInit: Got release version  Athena-22.0.1
Py:IOVDbSvc.CondDB    INFO Setting up conditions DB access to instance OFLP200
Py:Athena            INFO including file "AthenaCommon/runbatch.py"
[?1034hApplicationMgr       INFO Updating Gaudi::PluginService::SetDebug(level) to level= 'PluginDebugLevel':0
ApplicationMgr       INFO Updating Gaudi::PluginService::SetDebug(level) to level= 'PluginDebugLevel':0
MessageSvc           INFO Activating in a separate thread
ApplicationMgr    SUCCESS 
====================================================================================================================================
                                                   Welcome to ApplicationMgr (GaudiCoreSvc v30r5)
                                          running on lxplus079.cern.ch on Tue Dec 11 15:26:37 2018
====================================================================================================================================
ApplicationMgr       INFO Successfully loaded modules : AthenaServices
ApplicationMgr       INFO Application Manager Configured successfully
ApplicationMgr                                     INFO Updating Gaudi::PluginService::SetDebug(level) to level= 'PluginDebugLevel':0
AthDictLoaderSvc                                   INFO in initialize...
AthDictLoaderSvc                                   INFO acquired Dso-registry
ClassIDSvc                                         INFO  getRegistryEntries: read 3632 CLIDRegistry entries for module ALL
CoreDumpSvc                                        INFO install f-a-t-a-l handler... (flag = -1)
CoreDumpSvc                                        INFO Handling signals: 11(Segmentation fault) 7(Bus error) 4(Illegal instruction) 8(Floating point exception) 
AthenaHiveEventLoopMgr                             INFO Initializing AthenaHiveEventLoopMgr - package version AthenaServices-00-00-00
MetaDataSvc                                        INFO Initializing MetaDataSvc - package version AthenaServices-00-00-00
AthenaPoolCnvSvc                                   INFO Initializing AthenaPoolCnvSvc - package version AthenaPoolCnvSvc-00-00-00
PoolSvc                                            INFO io_register[PoolSvc](xmlcatalog_file:PoolFileCatalog.xml) [ok]
PoolSvc                                            INFO Set connectionsvc retry/timeout/IDLE timeout to  'ConnectionRetrialPeriod':300/ 'ConnectionRetrialTimeOut':3600/ 'ConnectionTimeOut':5 seconds with connection cleanup disabled
PoolSvc                                            INFO Frontier compression level set to 5
DBReplicaSvc                                       INFO Frontier server at (serverurl=http://atlasfrontier-local.cern.ch:8000/atlr)(serverurl=http://atlasfrontier-ai.cern.ch:8000/atlr)(serverurl=http://lcgft-atlas.gridpp.rl.ac.uk:3128/frontierATLAS)(serverurl=http://ccfrontier.in2p3.fr:23128/ccin2p3-AtlasFrontier)(proxyurl=http://ca-proxy.cern.ch:3128)(proxyurl=http://ca-proxy-meyrin.cern.ch:3128)(proxyurl=http://ca-proxy-wigner.cern.ch:3128)(proxyurl=http://atlasbpfrontier.cern.ch:3127)(proxyurl=http://atlasbpfrontier.fnal.gov:3127) will be considered for COOL data
DBReplicaSvc                                       INFO Read replica configuration from /cvmfs/atlas-nightlies.cern.ch/repo/sw/master/2018-12-10T2259/Athena/22.0.1/InstallArea/x86_64-slc6-gcc62-opt/share/dbreplica.config
DBReplicaSvc                                       INFO Total of 10 servers found for host lxplus079.cern.ch [ATLF ATLAS_COOLPROD atlas_dd ATLAS_CONFIG INT8R INTR ATONR_COOL ATONR_CONF DEVDB11 ATLF ]
PoolSvc                                            INFO Successfully setup replica sorting algorithm
PoolSvc                                            INFO Setting up APR FileCatalog and Streams
PoolSvc                                            INFO POOL WriteCatalog is xmlcatalog_file:PoolFileCatalog.xml
DbSession                                          INFO     Open     DbSession    
Domain[ROOT_All]                                   INFO >   Access   DbDomain     READ      [ROOT_All] 
IOVDbSvc                                           INFO Opened read transaction for POOL PersistencySvc
IOVDbSvc                                           INFO Only 5 POOL conditions files will be open at once
IOVDbSvc                                           INFO Cache alignment will be done in 3 slices
IOVDbFolder                                        INFO Read from meta data only for folder /TagInfo
IOVDbSvc                                           INFO Initialised with 2 connections and 5 folders
IOVDbSvc                                           INFO Service IOVDbSvc initialised successfully
ClassIDSvc                                         INFO  getRegistryEntries: read 2898 CLIDRegistry entries for module ALL
PyComponentMgr                                     INFO Initializing PyComponentMgr...
LoadReadDicts                                      INFO Initializing LoadReadDicts...
ClassIDSvc                                         INFO  getRegistryEntries: read 7066 CLIDRegistry entries for module ALL
CondInputLoader                                    INFO Initializing CondInputLoader...
IOVDbSvc                                           INFO preLoadAddresses: Removing folder /TagInfo. It should only be in the file meta data and was not found.
IOVDbSvc                                           INFO Opening COOL connection for sqlite://;schema=condtest.db;dbname=OFLP200
IOVSvc                                             INFO No IOVSvcTool associated with store "StoreGateSvc"
IOVSvcTool                                         INFO IOVRanges will be checked at every Event
IOVDbSvc                                           INFO Disconnecting from sqlite://;schema=condtest.db;dbname=OFLP200
IOVDbSvc                                           INFO Added taginfo remove for /DMTest/RLTest
IOVDbSvc                                           INFO Added taginfo remove for /DMTest/S2
IOVDbSvc                                           INFO Added taginfo remove for /DMTest/TSTest
IOVDbSvc                                           INFO Added taginfo remove for /DMTest/TestAttrList
CondInputLoader                                    INFO Adding base classes:
  +  ( 'AthenaAttributeList' , 'ConditionStore+/DMTest/RLTest' )   ->
  +  ( 'AthenaAttributeList' , 'ConditionStore+/DMTest/TSTest' )   ->
  +  ( 'AthenaAttributeList' , 'ConditionStore+/DMTest/TestAttrList' )   ->
  +  ( 'DMTest::S2' , 'ConditionStore+/DMTest/S2' )   -> DMTest::S1 (243020043)
CondInputLoader                                    INFO Will create WriteCondHandle dependencies for the following DataObjects:
    +  ( 'AthenaAttributeList' , 'ConditionStore+/DMTest/RLTest' ) 
    +  ( 'AthenaAttributeList' , 'ConditionStore+/DMTest/TSTest' ) 
    +  ( 'AthenaAttributeList' , 'ConditionStore+/DMTest/TestAttrList' ) 
    +  ( 'DMTest::S1' , 'ConditionStore+/DMTest/S2' ) 
    +  ( 'DMTest::S2' , 'ConditionStore+/DMTest/S2' ) 
ThreadPoolSvc                                      INFO no thread init tools attached
AvalancheSchedulerSvc                              INFO Activating scheduler in a separate thread
AvalancheSchedulerSvc                              INFO Found 10 algorithms
AvalancheSchedulerSvc                              INFO Data Dependencies for Algorithms:
  BeginIncFiringAlg
      none
  IncidentProcAlg1
      none
  SGInputLoader
      none
  LoadReadDicts
      none
  DMTest::CondReaderAlg
    o INPUT   ( 'AthenaAttributeList' , 'ConditionStore+/DMTest/RLTest' ) 
    o INPUT   ( 'AthenaAttributeList' , 'ConditionStore+/DMTest/TSTest' ) 
    o INPUT   ( 'AthenaAttributeList' , 'ConditionStore+/DMTest/TestAttrList' ) 
    o INPUT   ( 'DMTest::S1' , 'ConditionStore+/DMTest/S2' ) 
    o INPUT   ( 'DMTest::S1' , 'ConditionStore+scond' ) 
    o INPUT   ( 'DMTest::S3' , 'ConditionStore+scond3' ) 
    o INPUT   ( 'EventInfo' , 'StoreGateSvc+McEventInfo' ) 
  CondInputLoader
    o OUTPUT  ( 'AthenaAttributeList' , 'ConditionStore+/DMTest/RLTest' ) 
    o OUTPUT  ( 'AthenaAttributeList' , 'ConditionStore+/DMTest/TSTest' ) 
    o OUTPUT  ( 'AthenaAttributeList' , 'ConditionStore+/DMTest/TestAttrList' ) 
    o OUTPUT  ( 'DMTest::S1' , 'ConditionStore+/DMTest/S2' ) 
    o OUTPUT  ( 'DMTest::S2' , 'ConditionStore+/DMTest/S2' ) 
  DMTest::CondAlg1
    o INPUT   ( 'AthenaAttributeList' , 'ConditionStore+/DMTest/TestAttrList' ) 
    o OUTPUT  ( 'DMTest::S1' , 'ConditionStore+scond' ) 
    o OUTPUT  ( 'DMTest::S2' , 'ConditionStore+scond' ) 
  DMTest::CondAlg2
    o INPUT   ( 'AthenaAttributeList' , 'ConditionStore+/DMTest/RLTest' ) 
    o INPUT   ( 'AthenaAttributeList' , 'ConditionStore+/DMTest/TSTest' ) 
    o OUTPUT  ( 'DMTest::S3' , 'ConditionStore+scond3' ) 
  EndIncFiringAlg
      none
  IncidentProcAlg2
      none
AvalancheSchedulerSvc                              INFO Will attribute the following unmet INPUT dependencies to "SGInputLoader/SGInputLoader" Algorithm
   o  ( 'EventInfo' , 'StoreGateSvc+McEventInfo' )     required by Algorithm: 
       * DMTest::CondReaderAlg
PrecedenceSvc                                      INFO Assembling CF and DF task precedence rules
PrecedenceRulesGraph                               INFO CondSvc found. DF precedence rules will be augmented with 'Conditions'
PrecedenceSvc                                      INFO PrecedenceSvc initialized successfully
AvalancheSchedulerSvc                              INFO Concurrency level information:
AvalancheSchedulerSvc                              INFO  o Number of events in flight: 1
AvalancheSchedulerSvc                              INFO  o TBB thread pool size:  'ThreadPoolSize':1
HistogramPersistencySvc                         WARNING Histograms saving not required.
EventSelector                                      INFO  Enter McEventSelector Initialization 
AthenaHiveEventLoopMgr                             INFO Setup EventSelector service EventSelector
ApplicationMgr                                     INFO Application Manager Initialized successfully
PoolSvc                                            INFO Enabled implicit multithreading in ROOT via PersistencySvc to: 1
ClassIDSvc                                         INFO  getRegistryEntries: read 108 CLIDRegistry entries for module ALL
CondInputLoader                                    INFO created CondCont<AthenaAttributeList> with key 'ConditionStore+/DMTest/RLTest'
CondInputLoader                                    INFO created CondCont<AthenaAttributeList> with key 'ConditionStore+/DMTest/TSTest'
CondInputLoader                                    INFO created CondCont<AthenaAttributeList> with key 'ConditionStore+/DMTest/TestAttrList'
CondInputLoader                                    INFO created CondCont<DMTest::S2> with key 'ConditionStore+/DMTest/S2'
ApplicationMgr                                     INFO Application Manager Started successfully
AthenaHiveEventLoopMgr                             INFO Starting loop on events
EventPersistencySvc                     0   0      INFO Added successfully Conversion service:McCnvSvc
AthenaHiveEventLoopMgr                  0   0      INFO   ===>>>  start of run 0    <<<===
EventPersistencySvc                     0   0      INFO Added successfully Conversion service:AthenaPoolCnvSvc
EventPersistencySvc                     0   0      INFO Added successfully Conversion service:TagInfoMgr
ClassIDSvc                              0   0      INFO  getRegistryEntries: read 109 CLIDRegistry entries for module ALL
AthenaHiveEventLoopMgr                  0   0      INFO   ===>>>  start processing event #0, run #0 on slot 0,  0 events processed so far  <<<===
IOVDbSvc                                0   0      INFO Opening COOL connection for sqlite://;schema=condtest.db;dbname=OFLP200
IOVDbSvc                                0   0      INFO Disconnecting from sqlite://;schema=condtest.db;dbname=OFLP200
Domain[ROOT_All]                        0   0      INFO ->  Access   DbDatabase   READ      [ROOT_All] A834E12A-0572-2942-88EC-5A969061BCA7
Domain[ROOT_All]                        0   0      INFO                           condtest.pool.root
RootDatabase.open                       0   0      INFO condtest.pool.root File version:61404
DMTest::CondReaderAlg                   0   0      INFO Event 0 LBN 0
DMTest::CondReaderAlg                   0   0      INFO   xint xint (int) : 10
DMTest::CondReaderAlg                   0   0      INFO   scond 1000
DMTest::CondReaderAlg                   0   0      INFO   s2 0
DMTest::CondReaderAlg                   0   0      INFO   rl xint (int) : 1
DMTest::CondReaderAlg                   0   0      INFO   ts xint (int) : 100
DMTest::CondReaderAlg                   0   0      INFO   s3 101
AthenaHiveEventLoopMgr                             INFO   ===>>>  done processing event #0, run #0 on slot 0,  1 events processed so far  <<<===
AthenaHiveEventLoopMgr                  1   0      INFO   ===>>>  start processing event #1, run #0 on slot 0,  1 events processed so far  <<<===
ClassIDSvc                              1   0      INFO  getRegistryEntries: read 55 CLIDRegistry entries for module ALL
DMTest::CondReaderAlg                   1   0      INFO Event 1 LBN 0
DMTest::CondReaderAlg                   1   0      INFO   xint xint (int) : 10
DMTest::CondReaderAlg                   1   0      INFO   scond 1000
DMTest::CondReaderAlg                   1   0      INFO   s2 0
DMTest::CondReaderAlg                   1   0      INFO   rl xint (int) : 1
DMTest::CondReaderAlg                   1   0      INFO   ts xint (int) : 100
DMTest::CondReaderAlg                   1   0      INFO   s3 101
AthenaHiveEventLoopMgr                             INFO   ===>>>  done processing event #1, run #0 on slot 0,  2 events processed so far  <<<===
AthenaHiveEventLoopMgr                  2   0      INFO   ===>>>  start processing event #2, run #0 on slot 0,  2 events processed so far  <<<===
DMTest::CondReaderAlg                   2   0      INFO Event 2 LBN 0
DMTest::CondReaderAlg                   2   0      INFO   xint xint (int) : 10
DMTest::CondReaderAlg                   2   0      INFO   scond 1000
DMTest::CondReaderAlg                   2   0      INFO   s2 0
DMTest::CondReaderAlg                   2   0      INFO   rl xint (int) : 1
DMTest::CondReaderAlg                   2   0      INFO   ts xint (int) : 100
DMTest::CondReaderAlg                   2   0      INFO   s3 101
AthenaHiveEventLoopMgr                             INFO   ===>>>  done processing event #2, run #0 on slot 0,  3 events processed so far  <<<===
AthenaHiveEventLoopMgr                  3   0      INFO   ===>>>  start processing event #3, run #0 on slot 0,  3 events processed so far  <<<===
DMTest::CondReaderAlg                   3   0      INFO Event 3 LBN 1
DMTest::CondReaderAlg                   3   0      INFO   xint xint (int) : 20
DMTest::CondReaderAlg                   3   0      INFO   scond 2000
DMTest::CondReaderAlg                   3   0      INFO   s2 0
DMTest::CondReaderAlg                   3   0      INFO   rl xint (int) : 2
DMTest::CondReaderAlg                   3   0      INFO   ts xint (int) : 200
DMTest::CondReaderAlg                   3   0      INFO   s3 202
AthenaHiveEventLoopMgr                             INFO   ===>>>  done processing event #3, run #0 on slot 0,  4 events processed so far  <<<===
AthenaHiveEventLoopMgr                  4   0      INFO   ===>>>  start processing event #4, run #0 on slot 0,  4 events processed so far  <<<===
DMTest::CondReaderAlg                   4   0      INFO Event 4 LBN 1
DMTest::CondReaderAlg                   4   0      INFO   xint xint (int) : 20
DMTest::CondReaderAlg                   4   0      INFO   scond 2000
DMTest::CondReaderAlg                   4   0      INFO   s2 0
DMTest::CondReaderAlg                   4   0      INFO   rl xint (int) : 2
DMTest::CondReaderAlg                   4   0      INFO   ts xint (int) : 200
DMTest::CondReaderAlg                   4   0      INFO   s3 202
AthenaHiveEventLoopMgr                             INFO   ===>>>  done processing event #4, run #0 on slot 0,  5 events processed so far  <<<===
AthenaHiveEventLoopMgr                  5   0      INFO   ===>>>  start processing event #5, run #0 on slot 0,  5 events processed so far  <<<===
DMTest::CondReaderAlg                   5   0      INFO Event 5 LBN 1
DMTest::CondReaderAlg                   5   0      INFO   xint xint (int) : 20
DMTest::CondReaderAlg                   5   0      INFO   scond 2000
DMTest::CondReaderAlg                   5   0      INFO   s2 0
DMTest::CondReaderAlg                   5   0      INFO   rl xint (int) : 2
DMTest::CondReaderAlg                   5   0      INFO   ts xint (int) : 200
DMTest::CondReaderAlg                   5   0      INFO   s3 202
AthenaHiveEventLoopMgr                             INFO   ===>>>  done processing event #5, run #0 on slot 0,  6 events processed so far  <<<===
AthenaHiveEventLoopMgr                  6   0      INFO   ===>>>  start processing event #6, run #0 on slot 0,  6 events processed so far  <<<===
DMTest::CondReaderAlg                   6   0      INFO Event 6 LBN 2
DMTest::CondReaderAlg                   6   0      INFO   xint xint (int) : 30
DMTest::CondReaderAlg                   6   0      INFO   scond 3000
DMTest::CondReaderAlg                   6   0      INFO   s2 100
DMTest::CondReaderAlg                   6   0      INFO   rl xint (int) : 2
DMTest::CondReaderAlg                   6   0      INFO   ts xint (int) : 300
DMTest::CondReaderAlg                   6   0      INFO   s3 302
AthenaHiveEventLoopMgr                             INFO   ===>>>  done processing event #6, run #0 on slot 0,  7 events processed so far  <<<===
AthenaHiveEventLoopMgr                  7   0      INFO   ===>>>  start processing event #7, run #0 on slot 0,  7 events processed so far  <<<===
DMTest::CondReaderAlg                   7   0      INFO Event 7 LBN 2
DMTest::CondReaderAlg                   7   0      INFO   xint xint (int) : 30
DMTest::CondReaderAlg                   7   0      INFO   scond 3000
DMTest::CondReaderAlg                   7   0      INFO   s2 100
DMTest::CondReaderAlg                   7   0      INFO   rl xint (int) : 2
DMTest::CondReaderAlg                   7   0      INFO   ts xint (int) : 400
DMTest::CondReaderAlg                   7   0      INFO   s3 402
AthenaHiveEventLoopMgr                             INFO   ===>>>  done processing event #7, run #0 on slot 0,  8 events processed so far  <<<===
AthenaHiveEventLoopMgr                  8   0      INFO   ===>>>  start processing event #8, run #0 on slot 0,  8 events processed so far  <<<===
DMTest::CondReaderAlg                   8   0      INFO Event 8 LBN 2
DMTest::CondReaderAlg                   8   0      INFO   xint xint (int) : 30
DMTest::CondReaderAlg                   8   0      INFO   scond 3000
DMTest::CondReaderAlg                   8   0      INFO   s2 100
DMTest::CondReaderAlg                   8   0      INFO   rl xint (int) : 2
DMTest::CondReaderAlg                   8   0      INFO   ts xint (int) : 400
DMTest::CondReaderAlg                   8   0      INFO   s3 402
AthenaHiveEventLoopMgr                             INFO   ===>>>  done processing event #8, run #0 on slot 0,  9 events processed so far  <<<===
AthenaHiveEventLoopMgr                  9   0      INFO   ===>>>  start processing event #9, run #0 on slot 0,  9 events processed so far  <<<===
DMTest::CondReaderAlg                   9   0      INFO Event 9 LBN 3
DMTest::CondReaderAlg                   9   0      INFO   xint xint (int) : 40
DMTest::CondReaderAlg                   9   0      INFO   scond 4000
DMTest::CondReaderAlg                   9   0      INFO   s2 100
DMTest::CondReaderAlg                   9   0      INFO   rl xint (int) : 3
DMTest::CondReaderAlg                   9   0      INFO   ts xint (int) : 400
DMTest::CondReaderAlg                   9   0      INFO   s3 403
AthenaHiveEventLoopMgr                             INFO   ===>>>  done processing event #9, run #0 on slot 0,  10 events processed so far  <<<===
AthenaHiveEventLoopMgr                  10  0      INFO   ===>>>  start processing event #10, run #0 on slot 0,  10 events processed so far  <<<===
DMTest::CondReaderAlg                   10  0      INFO Event 10 LBN 3
DMTest::CondReaderAlg                   10  0      INFO   xint xint (int) : 40
DMTest::CondReaderAlg                   10  0      INFO   scond 4000
DMTest::CondReaderAlg                   10  0      INFO   s2 100
DMTest::CondReaderAlg                   10  0      INFO   rl xint (int) : 3
DMTest::CondReaderAlg                   10  0      INFO   ts xint (int) : 500
DMTest::CondReaderAlg                   10  0      INFO   s3 503
AthenaHiveEventLoopMgr                             INFO   ===>>>  done processing event #10, run #0 on slot 0,  11 events processed so far  <<<===
AthenaHiveEventLoopMgr                  11  0      INFO   ===>>>  start processing event #11, run #0 on slot 0,  11 events processed so far  <<<===
DMTest::CondReaderAlg                   11  0      INFO Event 11 LBN 3
DMTest::CondReaderAlg                   11  0      INFO   xint xint (int) : 40
DMTest::CondReaderAlg                   11  0      INFO   scond 4000
DMTest::CondReaderAlg                   11  0      INFO   s2 100
DMTest::CondReaderAlg                   11  0      INFO   rl xint (int) : 3
DMTest::CondReaderAlg                   11  0      INFO   ts xint (int) : 500
DMTest::CondReaderAlg                   11  0      INFO   s3 503
AthenaHiveEventLoopMgr                             INFO   ===>>>  done processing event #11, run #0 on slot 0,  12 events processed so far  <<<===
AthenaHiveEventLoopMgr                  12  0      INFO   ===>>>  start processing event #12, run #0 on slot 0,  12 events processed so far  <<<===
DMTest::CondReaderAlg                   12  0      INFO Event 12 LBN 4
DMTest::CondReaderAlg                   12  0      INFO   xint xint (int) : 50
DMTest::CondReaderAlg                   12  0      INFO   scond 5000
DMTest::CondReaderAlg                   12  0      INFO   s2 200
DMTest::CondReaderAlg                   12  0      INFO   rl xint (int) : 4
DMTest::CondReaderAlg                   12  0      INFO   ts xint (int) : 500
DMTest::CondReaderAlg                   12  0      INFO   s3 504
AthenaHiveEventLoopMgr                             INFO   ===>>>  done processing event #12, run #0 on slot 0,  13 events processed so far  <<<===
AthenaHiveEventLoopMgr                  13  0      INFO   ===>>>  start processing event #13, run #0 on slot 0,  13 events processed so far  <<<===
DMTest::CondReaderAlg                   13  0      INFO Event 13 LBN 4
DMTest::CondReaderAlg                   13  0      INFO   xint xint (int) : 50
DMTest::CondReaderAlg                   13  0      INFO   scond 5000
DMTest::CondReaderAlg                   13  0      INFO   s2 200
DMTest::CondReaderAlg                   13  0      INFO   rl xint (int) : 4
DMTest::CondReaderAlg                   13  0      INFO   ts xint (int) : 500
DMTest::CondReaderAlg                   13  0      INFO   s3 504
AthenaHiveEventLoopMgr                             INFO   ===>>>  done processing event #13, run #0 on slot 0,  14 events processed so far  <<<===
AthenaHiveEventLoopMgr                  14  0      INFO   ===>>>  start processing event #14, run #0 on slot 0,  14 events processed so far  <<<===
DMTest::CondReaderAlg                   14  0      INFO Event 14 LBN 4
DMTest::CondReaderAlg                   14  0      INFO   xint xint (int) : 50
DMTest::CondReaderAlg                   14  0      INFO   scond 5000
DMTest::CondReaderAlg                   14  0      INFO   s2 200
DMTest::CondReaderAlg                   14  0      INFO   rl xint (int) : 4
DMTest::CondReaderAlg                   14  0      INFO   ts xint (int) : 500
DMTest::CondReaderAlg                   14  0      INFO   s3 504
AthenaHiveEventLoopMgr                             INFO   ===>>>  done processing event #14, run #0 on slot 0,  15 events processed so far  <<<===
AthenaHiveEventLoopMgr                  15  0      INFO   ===>>>  start processing event #15, run #0 on slot 0,  15 events processed so far  <<<===
DMTest::CondReaderAlg                   15  0      INFO Event 15 LBN 5
DMTest::CondReaderAlg                   15  0      INFO   xint xint (int) : 60
DMTest::CondReaderAlg                   15  0      INFO   scond 6000
DMTest::CondReaderAlg                   15  0      INFO   s2 200
DMTest::CondReaderAlg                   15  0      INFO   rl xint (int) : 4
DMTest::CondReaderAlg                   15  0      INFO   ts xint (int) : 500
DMTest::CondReaderAlg                   15  0      INFO   s3 504
AthenaHiveEventLoopMgr                             INFO   ===>>>  done processing event #15, run #0 on slot 0,  16 events processed so far  <<<===
AthenaHiveEventLoopMgr                  16  0      INFO   ===>>>  start processing event #16, run #0 on slot 0,  16 events processed so far  <<<===
DMTest::CondReaderAlg                   16  0      INFO Event 16 LBN 5
DMTest::CondReaderAlg                   16  0      INFO   xint xint (int) : 60
DMTest::CondReaderAlg                   16  0      INFO   scond 6000
DMTest::CondReaderAlg                   16  0      INFO   s2 200
DMTest::CondReaderAlg                   16  0      INFO   rl xint (int) : 4
DMTest::CondReaderAlg                   16  0      INFO   ts xint (int) : 500
DMTest::CondReaderAlg                   16  0      INFO   s3 504
AthenaHiveEventLoopMgr                             INFO   ===>>>  done processing event #16, run #0 on slot 0,  17 events processed so far  <<<===
AthenaHiveEventLoopMgr                  17  0      INFO   ===>>>  start processing event #17, run #0 on slot 0,  17 events processed so far  <<<===
DMTest::CondReaderAlg                   17  0      INFO Event 17 LBN 5
DMTest::CondReaderAlg                   17  0      INFO   xint xint (int) : 60
DMTest::CondReaderAlg                   17  0      INFO   scond 6000
DMTest::CondReaderAlg                   17  0      INFO   s2 200
DMTest::CondReaderAlg                   17  0      INFO   rl xint (int) : 4
DMTest::CondReaderAlg                   17  0      INFO   ts xint (int) : 600
DMTest::CondReaderAlg                   17  0      INFO   s3 604
AthenaHiveEventLoopMgr                             INFO   ===>>>  done processing event #17, run #0 on slot 0,  18 events processed so far  <<<===
AthenaHiveEventLoopMgr                  18  0      INFO   ===>>>  start processing event #18, run #0 on slot 0,  18 events processed so far  <<<===
DMTest::CondReaderAlg                   18  0      INFO Event 18 LBN 6
DMTest::CondReaderAlg                   18  0      INFO   xint xint (int) : 70
DMTest::CondReaderAlg                   18  0      INFO   scond 7000
DMTest::CondReaderAlg                   18  0      INFO   s2 300
DMTest::CondReaderAlg                   18  0      INFO   rl xint (int) : 4
DMTest::CondReaderAlg                   18  0      INFO   ts xint (int) : 600
DMTest::CondReaderAlg                   18  0      INFO   s3 604
AthenaHiveEventLoopMgr                             INFO   ===>>>  done processing event #18, run #0 on slot 0,  19 events processed so far  <<<===
AthenaHiveEventLoopMgr                  19  0      INFO   ===>>>  start processing event #19, run #0 on slot 0,  19 events processed so far  <<<===
DMTest::CondReaderAlg                   19  0      INFO Event 19 LBN 6
DMTest::CondReaderAlg                   19  0      INFO   xint xint (int) : 70
DMTest::CondReaderAlg                   19  0      INFO   scond 7000
DMTest::CondReaderAlg                   19  0      INFO   s2 300
DMTest::CondReaderAlg                   19  0      INFO   rl xint (int) : 4
DMTest::CondReaderAlg                   19  0      INFO   ts xint (int) : 700
DMTest::CondReaderAlg                   19  0      INFO   s3 704
AthenaHiveEventLoopMgr                             INFO   ===>>>  done processing event #19, run #0 on slot 0,  20 events processed so far  <<<===
AthenaHiveEventLoopMgr                  20  0      INFO   ===>>>  start processing event #20, run #0 on slot 0,  20 events processed so far  <<<===
DMTest::CondReaderAlg                   20  0      INFO Event 20 LBN 6
DMTest::CondReaderAlg                   20  0      INFO   xint xint (int) : 70
DMTest::CondReaderAlg                   20  0      INFO   scond 7000
DMTest::CondReaderAlg                   20  0      INFO   s2 300
DMTest::CondReaderAlg                   20  0      INFO   rl xint (int) : 4
DMTest::CondReaderAlg                   20  0      INFO   ts xint (int) : 700
DMTest::CondReaderAlg                   20  0      INFO   s3 704
AthenaHiveEventLoopMgr                             INFO   ===>>>  done processing event #20, run #0 on slot 0,  21 events processed so far  <<<===
AthenaHiveEventLoopMgr                  21  0      INFO   ===>>>  start processing event #21, run #0 on slot 0,  21 events processed so far  <<<===
DMTest::CondReaderAlg                   21  0      INFO Event 21 LBN 7
DMTest::CondReaderAlg                   21  0      INFO   xint xint (int) : 80
DMTest::CondReaderAlg                   21  0      INFO   scond 8000
DMTest::CondReaderAlg                   21  0      INFO   s2 300
DMTest::CondReaderAlg                   21  0      INFO   rl xint (int) : 5
DMTest::CondReaderAlg                   21  0      INFO   ts xint (int) : 700
DMTest::CondReaderAlg                   21  0      INFO   s3 705
AthenaHiveEventLoopMgr                             INFO   ===>>>  done processing event #21, run #0 on slot 0,  22 events processed so far  <<<===
AthenaHiveEventLoopMgr                  22  0      INFO   ===>>>  start processing event #22, run #0 on slot 0,  22 events processed so far  <<<===
DMTest::CondReaderAlg                   22  0      INFO Event 22 LBN 7
DMTest::CondReaderAlg                   22  0      INFO   xint xint (int) : 80
DMTest::CondReaderAlg                   22  0      INFO   scond 8000
DMTest::CondReaderAlg                   22  0      INFO   s2 300
DMTest::CondReaderAlg                   22  0      INFO   rl xint (int) : 5
DMTest::CondReaderAlg                   22  0      INFO   ts xint (int) : 800
DMTest::CondReaderAlg                   22  0      INFO   s3 805
AthenaHiveEventLoopMgr                             INFO   ===>>>  done processing event #22, run #0 on slot 0,  23 events processed so far  <<<===
AthenaHiveEventLoopMgr                  23  0      INFO   ===>>>  start processing event #23, run #0 on slot 0,  23 events processed so far  <<<===
DMTest::CondReaderAlg                   23  0      INFO Event 23 LBN 7
DMTest::CondReaderAlg                   23  0      INFO   xint xint (int) : 80
DMTest::CondReaderAlg                   23  0      INFO   scond 8000
DMTest::CondReaderAlg                   23  0      INFO   s2 300
DMTest::CondReaderAlg                   23  0      INFO   rl xint (int) : 5
DMTest::CondReaderAlg                   23  0      INFO   ts xint (int) : 800
DMTest::CondReaderAlg                   23  0      INFO   s3 805
AthenaHiveEventLoopMgr                             INFO   ===>>>  done processing event #23, run #0 on slot 0,  24 events processed so far  <<<===
AthenaHiveEventLoopMgr                  24  0      INFO   ===>>>  start processing event #24, run #0 on slot 0,  24 events processed so far  <<<===
DMTest::CondReaderAlg                   24  0      INFO Event 24 LBN 8
DMTest::CondReaderAlg                   24  0      INFO   xint xint (int) : 90
DMTest::CondReaderAlg                   24  0      INFO   scond 9000
DMTest::CondReaderAlg                   24  0      INFO   s2 400
DMTest::CondReaderAlg                   24  0      INFO   rl xint (int) : 6
DMTest::CondReaderAlg                   24  0      INFO   ts xint (int) : 800
DMTest::CondReaderAlg                   24  0      INFO   s3 806
AthenaHiveEventLoopMgr                             INFO   ===>>>  done processing event #24, run #0 on slot 0,  25 events processed so far  <<<===
AthenaHiveEventLoopMgr                  25  0      INFO   ===>>>  start processing event #25, run #0 on slot 0,  25 events processed so far  <<<===
DMTest::CondReaderAlg                   25  0      INFO Event 25 LBN 8
DMTest::CondReaderAlg                   25  0      INFO   xint xint (int) : 90
DMTest::CondReaderAlg                   25  0      INFO   scond 9000
DMTest::CondReaderAlg                   25  0      INFO   s2 400
DMTest::CondReaderAlg                   25  0      INFO   rl xint (int) : 6
DMTest::CondReaderAlg                   25  0      INFO   ts xint (int) : 800
DMTest::CondReaderAlg                   25  0      INFO   s3 806
AthenaHiveEventLoopMgr                             INFO   ===>>>  done processing event #25, run #0 on slot 0,  26 events processed so far  <<<===
AthenaHiveEventLoopMgr                  26  0      INFO   ===>>>  start processing event #26, run #0 on slot 0,  26 events processed so far  <<<===
DMTest::CondReaderAlg                   26  0      INFO Event 26 LBN 8
DMTest::CondReaderAlg                   26  0      INFO   xint xint (int) : 90
DMTest::CondReaderAlg                   26  0      INFO   scond 9000
DMTest::CondReaderAlg                   26  0      INFO   s2 400
DMTest::CondReaderAlg                   26  0      INFO   rl xint (int) : 6
DMTest::CondReaderAlg                   26  0      INFO   ts xint (int) : 900
DMTest::CondReaderAlg                   26  0      INFO   s3 906
AthenaHiveEventLoopMgr                             INFO   ===>>>  done processing event #26, run #0 on slot 0,  27 events processed so far  <<<===
AthenaHiveEventLoopMgr                  27  0      INFO   ===>>>  start processing event #27, run #0 on slot 0,  27 events processed so far  <<<===
DMTest::CondReaderAlg                   27  0      INFO Event 27 LBN 9
DMTest::CondReaderAlg                   27  0      INFO   xint xint (int) : 100
DMTest::CondReaderAlg                   27  0      INFO   scond 10000
DMTest::CondReaderAlg                   27  0      INFO   s2 400
DMTest::CondReaderAlg                   27  0      INFO   rl xint (int) : 7
DMTest::CondReaderAlg                   27  0      INFO   ts xint (int) : 900
DMTest::CondReaderAlg                   27  0      INFO   s3 907
AthenaHiveEventLoopMgr                             INFO   ===>>>  done processing event #27, run #0 on slot 0,  28 events processed so far  <<<===
AthenaHiveEventLoopMgr                  28  0      INFO   ===>>>  start processing event #28, run #0 on slot 0,  28 events processed so far  <<<===
DMTest::CondReaderAlg                   28  0      INFO Event 28 LBN 9
DMTest::CondReaderAlg                   28  0      INFO   xint xint (int) : 100
DMTest::CondReaderAlg                   28  0      INFO   scond 10000
DMTest::CondReaderAlg                   28  0      INFO   s2 400
DMTest::CondReaderAlg                   28  0      INFO   rl xint (int) : 7
DMTest::CondReaderAlg                   28  0      INFO   ts xint (int) : 900
DMTest::CondReaderAlg                   28  0      INFO   s3 907
AthenaHiveEventLoopMgr                             INFO   ===>>>  done processing event #28, run #0 on slot 0,  29 events processed so far  <<<===
AthenaHiveEventLoopMgr                  29  0      INFO   ===>>>  start processing event #29, run #0 on slot 0,  29 events processed so far  <<<===
DMTest::CondReaderAlg                   29  0      INFO Event 29 LBN 9
DMTest::CondReaderAlg                   29  0      INFO   xint xint (int) : 100
DMTest::CondReaderAlg                   29  0      INFO   scond 10000
DMTest::CondReaderAlg                   29  0      INFO   s2 400
DMTest::CondReaderAlg                   29  0      INFO   rl xint (int) : 7
DMTest::CondReaderAlg                   29  0      INFO   ts xint (int) : 900
DMTest::CondReaderAlg                   29  0      INFO   s3 907
AthenaHiveEventLoopMgr                             INFO   ===>>>  done processing event #29, run #0 on slot 0,  30 events processed so far  <<<===
AthenaHiveEventLoopMgr                             INFO ---> Loop Finished (seconds): 1.70628
condtest.pool.root                                 INFO Database being retired...
Domain[ROOT_All]                                   INFO ->  Deaccess DbDatabase   READ      [ROOT_All] A834E12A-0572-2942-88EC-5A969061BCA7
Domain[ROOT_All]                                   INFO >   Deaccess DbDomain     READ      [ROOT_All] 
ApplicationMgr                                     INFO Application Manager Stopped successfully
IncidentProcAlg1                                   INFO Finalize
SGInputLoader                                      INFO Finalizing SGInputLoader...
LoadReadDicts                                      INFO Finalizing LoadReadDicts...
CondInputLoader                                    INFO Finalizing CondInputLoader...
IncidentProcAlg2                                   INFO Finalize
EventSelector                                      INFO finalize
AvalancheSchedulerSvc                              INFO Joining Scheduler thread
PyComponentMgr                                     INFO Finalizing PyComponentMgr...
EventDataSvc                                       INFO Finalizing EventDataSvc - package version StoreGate-00-00-00
IOVDbFolder                                        INFO Folder /DMTest/RLTest (AttrList) db-read 1/7 objs/chan/bytes 7/1/28 ((     0.01 ))s
IOVDbFolder                                        INFO Folder /DMTest/S2 (PoolRef) db-read 1/5 objs/chan/bytes 15/1/2715 ((     0.00 ))s
IOVDbFolder                                        INFO Folder /DMTest/TSTest (AttrList) db-read 1/9 objs/chan/bytes 9/1/36 ((     0.00 ))s
IOVDbFolder                                        INFO Folder /DMTest/TestAttrList (AttrList) db-read 1/10 objs/chan/bytes 30/1/120 ((     0.00 ))s
IOVDbSvc                                           INFO  bytes in ((      0.01 ))s
IOVDbSvc                                           INFO Connection sqlite://;schema=mycool.db;dbname=OFLP200 : nConnect: 0 nFolders: 0 ReadTime: ((     0.00 ))s
IOVDbSvc                                           INFO Connection sqlite://;schema=condtest.db;dbname=OFLP200 : nConnect: 2 nFolders: 4 ReadTime: ((     0.01 ))s
AthDictLoaderSvc                                   INFO in finalize...
ToolSvc                                            INFO Removing all tools created by ToolSvc
ChronoStatSvc.finalize()                           INFO  Service finalized successfully 
ApplicationMgr                                     INFO Application Manager Finalized successfully
ApplicationMgr                                     INFO Application Manager Terminated successfully
Py:Athena            INFO leaving with code 0: "successful run"
